<svg width="16" height="11" viewBox="0 0 16 11" fill="none" xmlns="http://www.w3.org/2000/svg">
<path fill-rule="evenodd" clip-rule="evenodd" d="M0 5.5C0 5.35268 0.0602 5.21139 0.167357 5.10722C0.274514 5.00305 0.41985 4.94452 0.571392 4.94452H14.0482L10.4519 1.44946C10.3446 1.34515 10.2843 1.20369 10.2843 1.05618C10.2843 0.908671 10.3446 0.767205 10.4519 0.662901C10.5592 0.558597 10.7047 0.5 10.8565 0.5C11.0082 0.5 11.1537 0.558597 11.261 0.662901L15.8321 5.10672C15.8853 5.15832 15.9276 5.21962 15.9564 5.2871C15.9852 5.35459 16 5.42694 16 5.5C16 5.57306 15.9852 5.64541 15.9564 5.7129C15.9276 5.78038 15.8853 5.84168 15.8321 5.89328L11.261 10.3371C11.1537 10.4414 11.0082 10.5 10.8565 10.5C10.7047 10.5 10.5592 10.4414 10.4519 10.3371C10.3446 10.2328 10.2843 10.0913 10.2843 9.94382C10.2843 9.79631 10.3446 9.65485 10.4519 9.55054L14.0482 6.05548H0.571392C0.41985 6.05548 0.274514 5.99695 0.167357 5.89278C0.0602 5.78861 0 5.64732 0 5.5Z" fill="#1D1D1D"/>
</svg>
